{
    "karte": [
        {
            "typ": "kategorie",
            "name": "Karte",
            "unterkategorien": [
                {
                    "typ": "kategorie",
                    "name": "Speisen",
                    "unterkategorien": [
                        {
                            "typ": "kategorie",
                            "name": "Vorspeisen",
                            "unterkategorien": [],
                            "produkte": [
                                {
                                    "typ": "produkt",
                                    "name": "Gemischter Salat",
                                    "preis": 5.5
                                },
                                {
                                    "typ": "produkt",
                                    "name": "Hochzeitssuppe",
                                    "preis": 3.8
                                }
                            ]
                        },
                        {
                            "typ": "kategorie",
                            "name": "Hauptspeisen",
                            "unterkategorien": [],
                            "produkte": [
                                {
                                    "typ": "produkt",
                                    "name": "Lammgulasch",
                                    "preis": 16
                                },
                                {
                                    "typ": "produkt",
                                    "name": "Maurisches Huhn",
                                    "beschreibung": "Hähnchenfilet mit Zitone, Käutern und Kartofflen in Olivenöl, Salatbeilage",
                                    "preis": 13
                                }
                            ]
                        },
                        {
                            "typ": "kategorie",
                            "name": "Nachspeisen",
                            "unterkategorien": [],
                            "produkte": [
                                {
                                    "typ": "produkt",
                                    "name": "Mousse au Chocolat",
                                    "preis": 4.8
                                },
                                {
                                    "typ": "produkt",
                                    "name": "Tiramisu",
                                    "preis": 4.8
                                },
                                {
                                    "typ": "produkt",
                                    "name": "Gemischtes Eis",
                                    "preis": 3.8
                                }
                            ]
                        }
                    ],
                    "produkte": []
                },
                {
                    "typ": "kategorie",
                    "name": "Getraenke",
                    "unterkategorien": [
                        {
                            "typ": "kategorie",
                            "name": "Heißgetränke",
                            "unterkategorien": [
                                {
                                    "typ": "kategorie",
                                    "name": "mit Alkohol",
                                    "unterkategorien": [],
                                    "produkte": [
                                        {
                                            "typ": "produkt",
                                            "name": "Latte macchiato mit 4cl Baileys",
                                            "preis": 4.8
                                        },
                                        {
                                            "typ": "produkt",
                                            "name": "Café Corretto (Espresso m. Schuss Amarett o. Sambuca)",
                                            "preis": 2.8
                                        },
                                        {
                                            "typ": "produkt",
                                            "name": "Lumumba - Kakao 3cl Osborne Veterano",
                                            "preis": 4.5
                                        },
                                        {
                                            "typ": "produkt",
                                            "name": "Heiße Schokolade mit 4 cl Baileys und Sahne",
                                            "preis": 5
                                        }
                                    ]
                                }
                            ],
                            "produkte": [
                                {
                                    "typ": "produkt",
                                    "name": "Doppelter Espresso",
                                    "preis": 3
                                },
                                {
                                    "typ": "produkt",
                                    "name": "Cappuccino",
                                    "preis": 2.5
                                },
                                {
                                    "typ": "produkt",
                                    "name": "Milchkaffee",
                                    "preis": 2.8
                                },
                                {
                                    "typ": "produkt",
                                    "name": "Latte macchiato",
                                    "preis": 2.8
                                },
                                {
                                    "typ": "produkt",
                                    "name": "Café Cortado (Espresso, Milchschaum)",
                                    "preis": 2.8
                                },
                                {
                                    "typ": "produkt",
                                    "name": "Café Cortado Leche y Leche mit süßer Kondensmilch",
                                    "preis": 3
                                },
                                {
                                    "typ": "produkt",
                                    "name": "Café Del Tiempo (Espresso. Eiswürfel. Zitrone)",
                                    "preis": 2.5
                                },
                                {
                                    "typ": "produkt",
                                    "name": "Caotina Schweizer Trinkschokolade",
                                    "preis": 2.6
                                },
                                {
                                    "typ": "produkt",
                                    "name": "Caotina Schweizer Trinkschokolade mit Sahne",
                                    "preis": 3
                                },
                                {
                                    "typ": "produkt",
                                    "name": "Ovomaltine",
                                    "preis": 2.6
                                },
                                {
                                    "typ": "produkt",
                                    "name": "Ovomaltine mit Sahne",
                                    "preis": 3
                                },
                                {
                                    "typ": "produkt",
                                    "name": "Ingwertee",
                                    "preis": 2.8
                                },
                                {
                                    "typ": "produkt",
                                    "name": "Pfefferminztee",
                                    "preis": 2.8
                                },
                                {
                                    "typ": "produkt",
                                    "name": "Grüner Tee Sencha oder Kräutertee",
                                    "preis": 2.6
                                },
                                {
                                    "typ": "produkt",
                                    "name": "Löslicher BIO-Getreide-Kaffee",
                                    "preis": 2.4
                                },
                                {
                                    "typ": "produkt",
                                    "name": "Löslicher Kaffee koffeinfrei",
                                    "preis": 2.2
                                }
                            ]
                        },
                        {
                            "typ": "kategorie",
                            "name": "Bier",
                            "unterkategorien": [],
                            "produkte": [
                                {
                                    "typ": "produkt",
                                    "name": "Pils",
                                    "preis": 3
                                },
                                {
                                    "typ": "produkt",
                                    "name": "Hefeweizen",
                                    "preis": 4
                                },
                                {
                                    "typ": "produkt",
                                    "name": "Guinness",
                                    "preis": 4.5
                                }
                            ]
                        },
                        {
                            "typ": "kategorie",
                            "name": "Wein",
                            "unterkategorien": [],
                            "produkte": [
                                {
                                    "typ": "produkt",
                                    "name": "Merlot",
                                    "preis": 4
                                },
                                {
                                    "typ": "produkt",
                                    "name": "Cabernet Sauvignon",
                                    "preis": 4
                                },
                                {
                                    "typ": "produkt",
                                    "name": "Syrah",
                                    "preis": 4
                                }
                            ]
                        },
                        {
                            "typ": "kategorie",
                            "name": "Alkoholfrei",
                            "unterkategorien": [],
                            "produkte": [
                                {
                                    "typ": "produkt",
                                    "name": "Viva con Agua laut 0.33l",
                                    "preis": 2
                                },
                                {
                                    "typ": "produkt",
                                    "name": "Viva con Agua leise 0.33l",
                                    "preis": 2
                                },
                                {
                                    "typ": "produkt",
                                    "name": "Viva con Agua laut 0.75l",
                                    "preis": 4.2
                                },
                                {
                                    "typ": "produkt",
                                    "name": "Viva con Agua leise 0.75l",
                                    "preis": 4.2
                                },
                                {
                                    "typ": "produkt",
                                    "name": "Lütts Landlust Rote Früchte 0.33l",
                                    "preis": 2.4
                                },
                                {
                                    "typ": "produkt",
                                    "name": "Lütts Streuobst Apfel 0.33l",
                                    "preis": 2.4
                                },
                                {
                                    "typ": "produkt",
                                    "name": "Lütts Landlust Holunderblüte 0.33l",
                                    "preis": 2.4
                                },
                                {
                                    "typ": "produkt",
                                    "name": "Lütts Landlust Rhabarber 0.33l",
                                    "preis": 2.4
                                },
                                {
                                    "typ": "produkt",
                                    "name": "Anjola BIO-Ananas-Limetten-Limonade 0.33l",
                                    "preis": 2.8
                                },
                                {
                                    "typ": "produkt",
                                    "name": "Anjola BIO-lngwer-Zitronen-Limonade 0.33l",
                                    "preis": 2.8
                                }
                            ]
                        }
                    ],
                    "produkte": []
                }
            ]
        }
    ],
    "mitarbeiter": [
        {
            "id": 1,
            "name": "Barbara",
            "rolleBedienung": true,
            "pin": "0001"
        },
        {
            "id": 2,
            "name": "Torben",
            "rolleBedienung": true,
            "rolleKassierer": true,
            "pin": "0002"
        },
        {
            "id": 3,
            "name": "Björn",
            "rolleBedienung": true,
            "rolleKassierer": true,
            "pin": "0003"
        },
        {
            "id": 4,
            "name": "Tabea",
            "rolleTresen": true,
            "pin": "0004"
        },
        {
            "id": 5,
            "name": "Lara",
            "rolleKueche": true,
            "pin": "0005"
        },
        {
            "id": 6,
            "name": "Silvie",
            "rolleBuchhaltung": true,
            "pin": "0006"
        },
        {
            "id": 7,
            "name": "Kai",
            "rolleChef": true,
            "pin": "0007"
        }
    ],
    "tische": [
        {
            "nummer": 1,
            "plaetze": 4
        },
        {
            "nummer": 2,
            "plaetze": 4
        },
        {
            "nummer": 3,
            "plaetze": 4
        },
        {
            "nummer": 4,
            "plaetze": 4
        },
        {
            "nummer": 5,
            "plaetze": 4
        },
        {
            "nummer": 6,
            "plaetze": 4
        },
        {
            "nummer": 7,
            "plaetze": 4
        },
        {
            "nummer": 8,
            "plaetze": 4
        },
        {
            "nummer": 9,
            "plaetze": 4
        },
        {
            "nummer": 10,
            "plaetze": 4
        }
    ],
    "bestellungen": [],
    "trinkgelder": [
        {
            "kassierer": "Torben",
            "rechnungsdatum": "2019-12-21T16:50:40.459Z",
            "tisch": 1,
            "trinkgeld": 0.5,
            "id": 1
        },
        {
            "kassierer": "Torben",
            "rechnungsdatum": "2019-12-21T16:56:34.504Z",
            "tisch": 1,
            "trinkgeld": 5,
            "id": 2
        },
        {
            "kassierer": "Torben",
            "rechnungsdatum": "2019-12-21T17:22:11.415Z",
            "tisch": "2",
            "trinkgeld": 3.5,
            "id": 3
        },
        {
            "kassierer": "Torben",
            "rechnungsdatum": "2019-12-21T17:36:14.318Z",
            "tisch": "2",
            "trinkgeld": 1.2000000000000002,
            "id": 4
        },
        {
            "kassierer": "Torben",
            "rechnungsdatum": "2019-12-21T17:41:02.394Z",
            "tisch": "6",
            "trinkgeld": 0.6999999999999993,
            "id": 5
        },
        {
            "kassierer": "Torben",
            "rechnungsdatum": "2019-12-21T17:42:06.569Z",
            "tisch": "6",
            "trinkgeld": 2,
            "id": 6
        },
        {
            "kassierer": "Torben",
            "rechnungsdatum": "2019-12-21T17:53:44.880Z",
            "tisch": "4",
            "trinkgeld": 5,
            "id": 7
        },
        {
            "rechnungsdatum": "2019-12-21T20:47:16.751Z",
            "kassierer": "Torben",
            "tisch": 1,
            "trinkgeld": 1.8000000000000007,
            "id": 8
        },
        {
            "rechnungsdatum": "2019-12-21T20:48:59.578Z",
            "kassierer": "Torben",
            "tisch": 1,
            "trinkgeld": 2.1999999999999993,
            "id": 9
        },
        {
            "rechnungsdatum": "2019-12-22T09:19:05.134Z",
            "kassierer": "Björn",
            "tisch": 1,
            "trinkgeld": 4,
            "id": 10
        },
        {
            "rechnungsdatum": "2019-12-22T10:07:22.555Z",
            "kassierer": "Björn",
            "tisch": 1,
            "trinkgeld": 1,
            "id": 11
        },
        {
            "rechnungsdatum": "2019-12-22T10:12:22.799Z",
            "kassierer": "Björn",
            "tisch": 1,
            "trinkgeld": 0.7000000000000002,
            "id": 12
        },
        {
            "rechnungsdatum": "2019-12-22T10:17:02.140Z",
            "kassierer": "Björn",
            "tisch": 1,
            "trinkgeld": 0.5,
            "id": 13
        },
        {
            "rechnungsdatum": "2019-12-22T10:22:24.130Z",
            "kassierer": "Björn",
            "tisch": 1,
            "trinkgeld": 0.20000000000000018,
            "id": 14
        },
        {
            "rechnungsdatum": "2019-12-22T11:18:02.064Z",
            "kassierer": "Björn",
            "tisch": 1,
            "trinkgeld": 2,
            "id": 15
        },
        {
            "rechnungsdatum": "2019-12-22T15:11:39.418Z",
            "kassierer": "Björn",
            "tisch": 1,
            "trinkgeld": 1,
            "id": 16
        },
        {
            "rechnungsdatum": "2019-12-22T15:54:20.758Z",
            "kassierer": "Björn",
            "tisch": 1,
            "trinkgeld": 0.20000000000000018,
            "id": 17
        },
        {
            "rechnungsdatum": "2019-12-22T15:57:27.427Z",
            "kassierer": "Björn",
            "tisch": 1,
            "trinkgeld": 0.20000000000000018,
            "id": 18
        },
        {
            "rechnungsdatum": "2019-12-22T16:04:38.268Z",
            "kassierer": "Björn",
            "tisch": 1,
            "trinkgeld": 1,
            "id": 19
        },
        {
            "rechnungsdatum": "2019-12-22T16:06:49.852Z",
            "kassierer": "Björn",
            "tisch": 1,
            "trinkgeld": 1,
            "id": 20
        },
        {
            "rechnungsdatum": "2019-12-22T16:13:17.452Z",
            "kassierer": "Björn",
            "tisch": 1,
            "trinkgeld": 2,
            "id": 21
        },
        {
            "rechnungsdatum": "2019-12-22T16:15:24.898Z",
            "kassierer": "Björn",
            "tisch": 1,
            "trinkgeld": 0.5,
            "id": 22
        },
        {
            "rechnungsdatum": "2019-12-22T16:22:36.289Z",
            "kassierer": "Björn",
            "tisch": 1,
            "trinkgeld": 0.5,
            "id": 23
        }
    ],
    "rechnungen": [
        {
            "typ": "produkt",
            "name": "Gemischter Salat",
            "preis": 5.5,
            "bedienung": "Torben",
            "tisch": 1,
            "bestelldatum": "2019-12-17T21:30:00.859Z",
            "bezahlt": true,
            "kassierer": "Torben",
            "rechnungsdatum": "2019-12-17T21:30:28.156Z",
            "id": 1
        },
        {
            "typ": "produkt",
            "name": "Hochzeitssuppe",
            "preis": 3.8,
            "bedienung": "Torben",
            "tisch": 1,
            "bestelldatum": "2019-12-17T21:30:01.521Z",
            "bezahlt": true,
            "kassierer": "Torben",
            "rechnungsdatum": "2019-12-17T21:30:28.156Z",
            "id": 2
        },
        {
            "typ": "produkt",
            "name": "Lammgulasch",
            "preis": 16,
            "bedienung": "Torben",
            "tisch": 1,
            "bestelldatum": "2019-12-17T21:30:06.118Z",
            "bezahlt": true,
            "kassierer": "Torben",
            "rechnungsdatum": "2019-12-17T21:30:28.156Z",
            "id": 3
        },
        {
            "typ": "produkt",
            "name": "Maurisches Huhn",
            "preis": 13,
            "bedienung": "Torben",
            "tisch": 1,
            "bestelldatum": "2019-12-17T21:30:06.743Z",
            "bezahlt": true,
            "kassierer": "Torben",
            "rechnungsdatum": "2019-12-17T21:30:28.156Z",
            "id": 4
        },
        {
            "typ": "produkt",
            "name": "Mousse au Chocolat",
            "preis": 4.8,
            "bedienung": "Torben",
            "tisch": 1,
            "bestelldatum": "2019-12-17T21:30:11.965Z",
            "bezahlt": true,
            "kassierer": "Torben",
            "rechnungsdatum": "2019-12-17T21:30:28.156Z",
            "id": 5
        },
        {
            "typ": "produkt",
            "name": "Tiramisu",
            "preis": 4.8,
            "bedienung": "Torben",
            "tisch": 1,
            "bestelldatum": "2019-12-17T21:30:12.464Z",
            "bezahlt": true,
            "kassierer": "Torben",
            "rechnungsdatum": "2019-12-17T21:30:28.156Z",
            "id": 6
        },
        {
            "typ": "produkt",
            "name": "Gemischtes Eis",
            "preis": 3.8,
            "bedienung": "Torben",
            "tisch": 1,
            "bestelldatum": "2019-12-17T21:30:13.157Z",
            "bezahlt": true,
            "kassierer": "Torben",
            "rechnungsdatum": "2019-12-17T21:30:28.156Z",
            "id": 7
        },
        {
            "id": 8,
            "typ": "produkt",
            "name": "Hefeweizen",
            "preis": 4,
            "bedienung": "Torben",
            "tisch": 1,
            "bestelldatum": "2019-12-17T21:33:47.048Z",
            "bezahlt": true,
            "kassierer": "Torben",
            "rechnungsdatum": "2019-12-21T16:56:34.504Z"
        },
        {
            "id": 9,
            "typ": "produkt",
            "name": "Guinness",
            "preis": 4.5,
            "bedienung": "Torben",
            "tisch": 1,
            "bestelldatum": "2019-12-17T21:33:48.056Z",
            "bezahlt": true,
            "kassierer": "Torben",
            "rechnungsdatum": "2019-12-21T16:56:34.504Z"
        },
        {
            "typ": "produkt",
            "name": "Maurisches Huhn",
            "preis": 13,
            "bedienung": "Torben",
            "tisch": 1,
            "bestelldatum": "2019-12-19T11:23:25.360Z",
            "id": 10,
            "bezahlt": true,
            "kassierer": "Torben",
            "rechnungsdatum": "2019-12-21T16:56:34.504Z"
        },
        {
            "typ": "produkt",
            "name": "Maurisches Huhn",
            "preis": 13,
            "bedienung": "Torben",
            "tisch": 1,
            "bestelldatum": "2019-12-19T11:57:01.369Z",
            "id": 11,
            "bezahlt": true,
            "kassierer": "Torben",
            "rechnungsdatum": "2019-12-21T16:56:34.504Z"
        },
        {
            "typ": "produkt",
            "name": "Maurisches Huhn",
            "preis": 13,
            "bedienung": "Torben",
            "tisch": 1,
            "bestelldatum": "2019-12-19T11:59:09.578Z",
            "id": 12,
            "bezahlt": true,
            "kassierer": "Torben",
            "rechnungsdatum": "2019-12-21T16:56:34.504Z"
        },
        {
            "typ": "produkt",
            "name": "Caotina Schweizer Trinkschokolade mit Sahne",
            "preis": 3,
            "bedienung": "Torben",
            "tisch": 1,
            "bestelldatum": "2019-12-19T19:03:48.867Z",
            "id": 13,
            "bezahlt": true,
            "kassierer": "Torben",
            "rechnungsdatum": "2019-12-21T16:56:34.504Z"
        },
        {
            "typ": "produkt",
            "name": "Lumumba - Kakao 3cl Osborne Veterano",
            "preis": 4.5,
            "bedienung": "Torben",
            "tisch": 1,
            "bestelldatum": "2019-12-19T19:04:57.047Z",
            "id": 14,
            "bezahlt": true,
            "kassierer": "Torben",
            "rechnungsdatum": "2019-12-21T16:56:34.504Z"
        },
        {
            "typ": "produkt",
            "name": "Lumumba - Kakao 3cl Osborne Veterano",
            "preis": 4.5,
            "bedienung": "Tabea",
            "tisch": "2",
            "bestelldatum": "2019-12-21T17:21:54.845Z",
            "id": 15,
            "bezahlt": true,
            "kassierer": "Torben",
            "rechnungsdatum": "2019-12-21T17:22:11.415Z"
        },
        {
            "typ": "produkt",
            "name": "Latte macchiato mit 4cl Baileys",
            "preis": 4.8,
            "bedienung": "Kai",
            "tisch": "2",
            "bestelldatum": "2019-12-21T17:35:50.916Z",
            "id": 16,
            "bezahlt": true,
            "kassierer": "Torben",
            "rechnungsdatum": "2019-12-21T17:36:14.318Z"
        },
        {
            "typ": "produkt",
            "name": "Lumumba - Kakao 3cl Osborne Veterano",
            "preis": 4.5,
            "bemerkungen": "Mit extraschuss",
            "bedienung": "Kai",
            "tisch": "6",
            "bestelldatum": "2019-12-21T17:40:24.637Z",
            "id": 17,
            "bezahlt": true,
            "kassierer": "Torben",
            "rechnungsdatum": "2019-12-21T17:41:02.394Z"
        },
        {
            "typ": "produkt",
            "name": "Latte macchiato mit 4cl Baileys",
            "preis": 4.8,
            "bemerkungen": "Weniger Baileys",
            "bedienung": "Kai",
            "tisch": "6",
            "bestelldatum": "2019-12-21T17:40:48.898Z",
            "id": 18,
            "bezahlt": true,
            "kassierer": "Torben",
            "rechnungsdatum": "2019-12-21T17:41:02.394Z"
        },
        {
            "typ": "produkt",
            "name": "Lumumba - Kakao 3cl Osborne Veterano",
            "preis": 4.5,
            "bemerkungen": "Mit extraschuss",
            "bedienung": "Kai",
            "tisch": "6",
            "bestelldatum": "2019-12-21T17:40:24.637Z",
            "id": 19,
            "bezahlt": true,
            "kassierer": "Torben",
            "rechnungsdatum": "2019-12-21T17:41:02.394Z"
        },
        {
            "typ": "produkt",
            "name": "Maurisches Huhn",
            "beschreibung": "Hähnchenfilet mit Zitone, Käutern und Kartofflen in Olivenöl, Salatbeilage",
            "preis": 13,
            "bemerkungen": "Lecker",
            "bedienung": "Kai",
            "tisch": "6",
            "bestelldatum": "2019-12-21T17:41:50.968Z",
            "id": 20,
            "bezahlt": true,
            "kassierer": "Torben",
            "rechnungsdatum": "2019-12-21T17:42:06.569Z"
        },
        {
            "typ": "produkt",
            "name": "Lammgulasch",
            "preis": 16,
            "bedienung": "Barbara",
            "tisch": "4",
            "bestelldatum": "2019-12-21T17:52:37.817Z",
            "id": 21,
            "bezahlt": true,
            "kassierer": "Torben",
            "rechnungsdatum": "2019-12-21T17:53:44.880Z"
        },
        {
            "typ": "produkt",
            "name": "Hefeweizen",
            "preis": 4,
            "bedienung": "Barbara",
            "tisch": "4",
            "bestelldatum": "2019-12-21T17:52:46.943Z",
            "id": 22,
            "bezahlt": true,
            "kassierer": "Torben",
            "rechnungsdatum": "2019-12-21T17:53:44.880Z"
        },
        {
            "typ": "produkt",
            "name": "Hefeweizen",
            "preis": 4,
            "bedienung": "Torben",
            "tisch": 1,
            "bestelldatum": "2019-12-21T18:39:38.081Z",
            "id": 23,
            "bezahlt": true,
            "kassierer": "Torben",
            "rechnungsdatum": "2019-12-21T20:47:16.751Z"
        },
        {
            "typ": "produkt",
            "name": "Viva con Agua leise 0.75l",
            "preis": 4.2,
            "bedienung": "Barbara",
            "tisch": 1,
            "bestelldatum": "2019-12-21T20:30:03.161Z",
            "id": 24,
            "bezahlt": true,
            "kassierer": "Torben",
            "rechnungsdatum": "2019-12-21T20:47:16.751Z"
        },
        {
            "typ": "produkt",
            "name": "Hefeweizen",
            "preis": 4,
            "bedienung": "Torben",
            "tisch": 1,
            "bestelldatum": "2019-12-21T18:39:38.081Z",
            "id": 25,
            "bezahlt": true,
            "kassierer": "Torben",
            "rechnungsdatum": "2019-12-21T20:47:16.751Z"
        },
        {
            "typ": "produkt",
            "name": "Syrah",
            "preis": 4,
            "bedienung": "Tabea",
            "tisch": "2",
            "bestelldatum": "2019-12-21T18:49:08.720Z",
            "id": 26,
            "bezahlt": true,
            "kassierer": "Torben",
            "rechnungsdatum": "2019-12-21T20:48:59.578Z"
        },
        {
            "typ": "produkt",
            "name": "Hefeweizen",
            "preis": 4,
            "bedienung": "Torben",
            "tisch": "2",
            "bestelldatum": "2019-12-21T18:59:31.720Z",
            "id": 27,
            "bezahlt": true,
            "kassierer": "Torben",
            "rechnungsdatum": "2019-12-21T20:48:59.578Z"
        },
        {
            "typ": "produkt",
            "name": "Anjola BIO-lngwer-Zitronen-Limonade 0.33l",
            "preis": 2.8,
            "bedienung": "Torben",
            "tisch": "2",
            "bestelldatum": "2019-12-21T18:59:44.727Z",
            "id": 28,
            "bezahlt": true,
            "kassierer": "Torben",
            "rechnungsdatum": "2019-12-21T20:48:59.578Z"
        },
        {
            "typ": "produkt",
            "name": "Lammgulasch",
            "preis": 16,
            "bedienung": "Torben",
            "tisch": 1,
            "bestelldatum": "2019-12-21T20:49:52.432Z",
            "id": 29,
            "bezahlt": true,
            "rechnungsdatum": "2019-12-22T09:19:05.134Z",
            "kassierer": "Björn"
        },
        {
            "typ": "produkt",
            "name": "Pils",
            "preis": 3,
            "bedienung": "Björn",
            "tisch": 1,
            "bestelldatum": "2019-12-22T09:18:27.530Z",
            "id": 30,
            "bezahlt": true,
            "rechnungsdatum": "2019-12-22T09:19:05.134Z",
            "kassierer": "Björn"
        },
        {
            "typ": "produkt",
            "name": "Pils",
            "preis": 3,
            "bedienung": "Björn",
            "tisch": 1,
            "bestelldatum": "2019-12-22T09:18:27.930Z",
            "id": 31,
            "bezahlt": true,
            "rechnungsdatum": "2019-12-22T09:19:05.134Z",
            "kassierer": "Björn"
        },
        {
            "typ": "produkt",
            "name": "Pils",
            "preis": 3,
            "bedienung": "Björn",
            "tisch": 1,
            "bestelldatum": "2019-12-22T09:18:28.326Z",
            "id": 32,
            "bezahlt": true,
            "rechnungsdatum": "2019-12-22T09:19:05.134Z",
            "kassierer": "Björn"
        },
        {
            "typ": "produkt",
            "name": "Pils",
            "preis": 3,
            "bedienung": "Björn",
            "tisch": 1,
            "bestelldatum": "2019-12-22T09:18:28.781Z",
            "id": 33,
            "bezahlt": true,
            "rechnungsdatum": "2019-12-22T09:19:05.134Z",
            "kassierer": "Björn"
        },
        {
            "typ": "produkt",
            "name": "Pils",
            "preis": 3,
            "bedienung": "Björn",
            "tisch": 1,
            "bestelldatum": "2019-12-22T09:18:29.217Z",
            "id": 34,
            "bezahlt": true,
            "rechnungsdatum": "2019-12-22T09:19:05.134Z",
            "kassierer": "Björn"
        },
        {
            "typ": "produkt",
            "name": "Syrah",
            "preis": 4,
            "bedienung": "Björn",
            "tisch": 1,
            "bestelldatum": "2019-12-22T09:20:37.632Z",
            "id": 35,
            "bezahlt": true,
            "rechnungsdatum": "2019-12-22T10:07:22.555Z",
            "kassierer": "Björn"
        },
        {
            "typ": "produkt",
            "name": "Syrah",
            "preis": 4,
            "bedienung": "Björn",
            "tisch": 1,
            "bestelldatum": "2019-12-22T09:30:36.557Z",
            "id": 36,
            "bezahlt": true,
            "rechnungsdatum": "2019-12-22T10:07:22.555Z",
            "kassierer": "Björn"
        },
        {
            "typ": "produkt",
            "name": "Hochzeitssuppe",
            "preis": 3.8,
            "bedienung": "Björn",
            "tisch": 1,
            "bestelldatum": "2019-12-22T10:12:02.339Z",
            "id": 37,
            "bezahlt": true,
            "rechnungsdatum": "2019-12-22T10:12:22.799Z",
            "kassierer": "Björn"
        },
        {
            "typ": "produkt",
            "name": "Viva con Agua leise 0.33l",
            "preis": 2,
            "bedienung": "Björn",
            "tisch": 1,
            "bestelldatum": "2019-12-22T10:16:31.792Z",
            "id": 38,
            "bezahlt": true,
            "rechnungsdatum": "2019-12-22T10:17:02.140Z",
            "kassierer": "Björn"
        },
        {
            "typ": "produkt",
            "name": "Viva con Agua leise 0.33l",
            "preis": 2,
            "bedienung": "Björn",
            "tisch": 1,
            "bestelldatum": "2019-12-22T10:20:44.925Z",
            "id": 39,
            "bezahlt": true,
            "rechnungsdatum": "2019-12-22T10:22:24.130Z",
            "kassierer": "Björn"
        },
        {
            "typ": "produkt",
            "name": "Viva con Agua leise 0.33l",
            "preis": 2,
            "bedienung": "Björn",
            "tisch": 1,
            "bestelldatum": "2019-12-22T10:23:35.431Z",
            "id": 40,
            "bezahlt": true,
            "rechnungsdatum": "2019-12-22T11:18:02.064Z",
            "kassierer": "Björn"
        },
        {
            "typ": "produkt",
            "name": "Viva con Agua laut 0.33l",
            "preis": 2,
            "bedienung": "Björn",
            "tisch": 1,
            "bestelldatum": "2019-12-22T15:11:13.901Z",
            "id": 41,
            "bezahlt": true,
            "rechnungsdatum": "2019-12-22T15:11:39.418Z",
            "kassierer": "Björn"
        },
        {
            "typ": "produkt",
            "name": "Anjola BIO-lngwer-Zitronen-Limonade 0.33l",
            "preis": 2.8,
            "bedienung": "Björn",
            "tisch": 1,
            "bestelldatum": "2019-12-22T15:53:59.524Z",
            "id": 42,
            "bezahlt": true,
            "rechnungsdatum": "2019-12-22T15:54:20.758Z",
            "kassierer": "Björn"
        },
        {
            "typ": "produkt",
            "name": "Latte macchiato mit 4cl Baileys",
            "preis": 4.8,
            "bedienung": "Björn",
            "tisch": 1,
            "bestelldatum": "2019-12-22T15:57:05.934Z",
            "id": 43,
            "bezahlt": true,
            "rechnungsdatum": "2019-12-22T15:57:27.427Z",
            "kassierer": "Björn"
        },
        {
            "typ": "produkt",
            "name": "Doppelter Espresso",
            "preis": 3,
            "bedienung": "Björn",
            "tisch": 1,
            "bestelldatum": "2019-12-22T16:03:41.379Z",
            "id": 44,
            "bezahlt": true,
            "rechnungsdatum": "2019-12-22T16:04:38.268Z",
            "kassierer": "Björn"
        },
        {
            "typ": "produkt",
            "name": "Pils",
            "preis": 3,
            "bedienung": "Björn",
            "tisch": 1,
            "bestelldatum": "2019-12-22T16:06:25.028Z",
            "id": 45,
            "bezahlt": true,
            "rechnungsdatum": "2019-12-22T16:06:49.852Z",
            "kassierer": "Björn"
        },
        {
            "typ": "produkt",
            "name": "Doppelter Espresso",
            "preis": 3,
            "bedienung": "Björn",
            "tisch": 1,
            "bestelldatum": "2019-12-22T16:12:39.954Z",
            "id": 46,
            "bezahlt": true,
            "rechnungsdatum": "2019-12-22T16:13:17.452Z",
            "kassierer": "Björn"
        },
        {
            "typ": "produkt",
            "name": "Gemischter Salat",
            "preis": 5.5,
            "bedienung": "Björn",
            "tisch": 1,
            "bestelldatum": "2019-12-22T16:15:07.044Z",
            "id": 47,
            "bezahlt": true,
            "rechnungsdatum": "2019-12-22T16:15:24.898Z",
            "kassierer": "Björn"
        },
        {
            "typ": "produkt",
            "name": "Syrah",
            "preis": 4,
            "bedienung": "Björn",
            "tisch": 1,
            "bestelldatum": "2019-12-22T16:22:11.790Z",
            "id": 48,
            "bezahlt": true,
            "rechnungsdatum": "2019-12-22T16:22:36.289Z",
            "kassierer": "Björn"
        }
    ]
}